{
  "project_info": {
    "project_number": "782828609342",
    "firebase_url": "https://thirdeye-47472.firebaseio.com",
    "project_id": "thirdeye-47472",
    "storage_bucket": "thirdeye-47472.appspot.com"
  },
  "client": [
    {
      "client_info": {
        "mobilesdk_app_id": "1:782828609342:android:c777fca183214b34c5966f",
        "android_client_info": {
          "package_name": "com.sm.location"
        }
      },
      "oauth_client": [
        {
          "client_id": "782828609342-0iottpn5tdna70d85ovimo0bf0lukrm8.apps.googleusercontent.com",
          "client_type": 1,
          "android_info": {
            "package_name": "com.sm.location",
            "certificate_hash": "b9b1791ef05d17e5ab2b503ddcf5d4811927a090"
          }
        },
        {
          "client_id": "782828609342-ohee71ok5mtgldedbk35qvifu79gb6dj.apps.googleusercontent.com",
          "client_type": 3
        }
      ],
      "api_key": [
        {
          "current_key": "AIzaSyD9OlZqf8ra5S56HywsFM4ydhFD12QkSIE"
        }
      ],
      "services": {
        "appinvite_service": {
          "other_platform_oauth_client": [
            {
              "client_id": "782828609342-ohee71ok5mtgldedbk35qvifu79gb6dj.apps.googleusercontent.com",
              "client_type": 3
            }
          ]
        }
      }
    }
  ],
  "configuration_version": "1"
}